…
``` r
library(tidyverse)
library(p8105.datasets)

data("ny_noaa")

ny_noaa
```

    ## # A tibble: 2,595,176 × 7
    ##    id          date        prcp  snow  snwd tmax  tmin 
    ##    <chr>       <date>     <int> <int> <int> <chr> <chr>
    ##  1 US1NYAB0001 2007-11-01    NA    NA    NA <NA>  <NA> 
    ##  2 US1NYAB0001 2007-11-02    NA    NA    NA <NA>  <NA> 
    ##  3 US1NYAB0001 2007-11-03    NA    NA    NA <NA>  <NA> 
    ##  4 US1NYAB0001 2007-11-04    NA    NA    NA <NA>  <NA> 
    ##  5 US1NYAB0001 2007-11-05    NA    NA    NA <NA>  <NA> 
    ##  6 US1NYAB0001 2007-11-06    NA    NA    NA <NA>  <NA> 
    ##  7 US1NYAB0001 2007-11-07    NA    NA    NA <NA>  <NA> 
    ##  8 US1NYAB0001 2007-11-08    NA    NA    NA <NA>  <NA> 
    ##  9 US1NYAB0001 2007-11-09    NA    NA    NA <NA>  <NA> 
    ## 10 US1NYAB0001 2007-11-10    NA    NA    NA <NA>  <NA> 
    ## # ℹ 2,595,166 more rows
…
    ## Rows: 250 Columns: 5
    ## ── Column specification ────────────────────────────────────────────────────────
    ## Delimiter: ","
    ## dbl (5): SEQN, sex, age, BMI, education
    ## 
    ## ℹ Use `spec()` to retrieve the full column specification for this data.
    ## ℹ Specify the column types or set `show_col_types = FALSE` to quiet this message.

``` r
demo
```

    ## # A tibble: 250 × 5
    ##     seqn sex      age   bmi education             
    ##    <dbl> <fct>  <int> <dbl> <fct>                 
    ##  1 62161 male      22  23.3 high school equivalent
    ##  2 62164 female    44  23.2 more than high school 
    ##  3 62169 male      21  20.1 high school equivalent
    ##  4 62174 male      80  33.9 more than high school 
    ##  5 62177 male      51  20.1 high school equivalent
    ##  6 62178 male      80  28.5 high school equivalent
    ##  7 62180 male      35  27.9 more than high school 
    ##  8 62184 male      26  22.1 high school equivalent
    ##  9 62186 female    17  22.9 <NA>                  
    ## 10 62189 female    30  22.4 more than high school 
    ## # ℹ 240 more rows
…
mims
```

    ## # A tibble: 328,320 × 7
    ##     seqn sex     age   bmi education              minute  mims
    ##    <dbl> <fct> <int> <dbl> <fct>                  <chr>  <dbl>
    ##  1 62161 male     22  23.3 high school equivalent 1      1.11 
    ##  2 62161 male     22  23.3 high school equivalent 2      3.12 
    ##  3 62161 male     22  23.3 high school equivalent 3      1.47 
    ##  4 62161 male     22  23.3 high school equivalent 4      0.938
    ##  5 62161 male     22  23.3 high school equivalent 5      1.60 
    ##  6 62161 male     22  23.3 high school equivalent 6      0.145
    ##  7 62161 male     22  23.3 high school equivalent 7      2.10 
    ##  8 62161 male     22  23.3 high school equivalent 8      0.509
    ##  9 62161 male     22  23.3 high school equivalent 9      1.63 
    ## 10 62161 male     22  23.3 high school equivalent 10     1.20 
    ## # ℹ 328,310 more rows
…
